$MeshFormat
4.1 0 8
$EndMeshFormat
$PhysicalNames
4
2 1 "top"
2 2 "bottom"
3 3 "rod"
3 4 "binder"
$EndPhysicalNames
$Entities
10 15 9 2
1 0 0 0 0 
2 1 0 0 0 
3 0 1 0 0 
4 1 1 0 0 
5 0.8 0.5 0 0 
6 0.8 0.5 0.25 0 
7 0 0 0.25 0 
8 1 0 0.25 0 
9 0 1 0.25 0 
10 1 1 0.25 0 
1 -9.999999994736442e-08 -1e-07 -1e-07 1.0000001 1e-07 1e-07 0 2 1 -2 
2 -1e-07 -9.999999994736442e-08 -1e-07 1e-07 1.0000001 1e-07 0 2 3 -1 
3 0.9999999000000001 -9.999999994736442e-08 -1e-07 1.0000001 1.0000001 1e-07 0 2 2 -4 
4 -9.999999994736442e-08 0.9999999000000001 -1e-07 1.0000001 1.0000001 1e-07 0 2 4 -3 
5 0.1999999 0.1999999 -1e-07 0.8000001 0.8000001 1e-07 0 2 5 -5 
6 0.7999999000000001 0.4999999 -1.000000000028756e-07 0.8000001 0.5000000999999999 0.2500001 0 2 5 -6 
7 0.1999999 0.1999999 0.2499999 0.8000001 0.8000001 0.2500001 0 2 6 -6 
8 -1e-07 -1e-07 -1.000000000028756e-07 1e-07 1e-07 0.2500001 0 2 1 -7 
9 0.9999999000000001 -1e-07 -1.000000000028756e-07 1.0000001 1e-07 0.2500001 0 2 2 -8 
10 -9.999999994736442e-08 -1e-07 0.2499999 1.0000001 1e-07 0.2500001 0 2 7 -8 
11 -1e-07 0.9999999000000001 -1.000000000028756e-07 1e-07 1.0000001 0.2500001 0 2 3 -9 
12 -1e-07 -9.999999994736442e-08 0.2499999 1e-07 1.0000001 0.2500001 0 2 9 -7 
13 0.9999999000000001 0.9999999000000001 -1.000000000028756e-07 1.0000001 1.0000001 0.2500001 0 2 4 -10 
14 0.9999999000000001 -9.999999994736442e-08 0.2499999 1.0000001 1.0000001 0.2500001 0 2 8 -10 
15 -9.999999994736442e-08 0.9999999000000001 0.2499999 1.0000001 1.0000001 0.2500001 0 2 10 -9 
10 0.1999999 0.1999999 -1e-07 0.8000001 0.8000001 1e-07 1 1 1 5 
11 -9.999999994736442e-08 -9.999999994736442e-08 -1e-07 1.0000001 1.0000001 1e-07 1 1 5 1 3 4 2 5 
12 0.1999999 0.1999999 -1.000000000028756e-07 0.8000001 0.8000001 0.2500001 0 4 6 7 -6 5 
13 0.1999999 0.1999999 0.2499999 0.8000001 0.8000001 0.2500001 1 2 1 7 
14 -9.999999994736442e-08 -1e-07 -1.000000000028756e-07 1.0000001 1e-07 0.2500001 0 4 8 10 -9 -1 
15 -1e-07 -9.999999994736442e-08 -1.000000000028756e-07 1e-07 1.0000001 0.2500001 0 4 11 12 -8 -2 
16 0.9999999000000001 -9.999999994736442e-08 -1.000000000028756e-07 1.0000001 1.0000001 0.2500001 0 4 9 14 -13 -3 
17 -9.999999994736442e-08 0.9999999000000001 -1.000000000028756e-07 1.0000001 1.0000001 0.2500001 0 4 13 15 -11 -4 
18 -9.999999994736442e-08 -9.999999994736442e-08 0.2499999 1.0000001 1.0000001 0.2500001 1 2 5 10 14 15 12 7 
1 0.1999999 0.1999999 -1.000000000028756e-07 0.8000001 0.8000001 0.2500001 1 3 3 12 10 13 
2 -9.999999994736442e-08 -9.999999994736442e-08 -1.000000000028756e-07 1.0000001 1.0000001 0.2500001 1 4 7 14 15 16 17 12 11 18 
$EndEntities
$Nodes
36 156 1 156
0 1 0 1
1
0 0 0
0 2 0 1
2
1 0 0
0 3 0 1
3
0 1 0
0 4 0 1
4
1 1 0
0 5 0 1
5
0.8 0.5 0
0 6 0 1
6
0.8 0.5 0.25
0 7 0 1
7
0 0 0.25
0 8 0 1
8
1 0 0.25
0 9 0 1
9
0 1 0.25
0 10 0 1
10
1 1 0.25
1 1 0 3
11
12
13
0.25 0 0
0.5 0 0
0.75 0 0
1 2 0 3
14
15
16
0 0.75 0
0 0.5 0
0 0.25 0
1 3 0 3
17
18
19
1 0.25 0
1 0.5 0
1 0.75 0
1 4 0 3
20
21
22
0.75 1 0
0.5 1 0
0.25 1 0
1 5 0 7
23
24
25
26
27
28
29
0.7121320343559641 0.7121320343559644 0
0.4999999999999997 0.8 0
0.2878679656440353 0.7121320343559638 0
0.2 0.4999999999999994 0
0.2878679656440357 0.2878679656440358 0
0.4999999999999997 0.2 0
0.7121320343559641 0.2878679656440355 0
1 6 0 2
30
31
0.8 0.5 0.08333333333333333
0.8 0.5 0.1666666666666667
1 7 0 7
32
33
34
35
36
37
38
0.7121320343559641 0.7121320343559644 0.25
0.4999999999999997 0.8 0.25
0.2878679656440353 0.7121320343559638 0.25
0.2 0.4999999999999994 0.25
0.2878679656440357 0.2878679656440358 0.25
0.4999999999999997 0.2 0.25
0.7121320343559641 0.2878679656440355 0.25
1 8 0 2
39
40
0 0 0.08333333333333333
0 0 0.1666666666666667
1 9 0 2
41
42
1 0 0.08333333333333333
1 0 0.1666666666666667
1 10 0 3
43
44
45
0.25 0 0.25
0.5 0 0.25
0.75 0 0.25
1 11 0 2
46
47
0 1 0.08333333333333333
0 1 0.1666666666666667
1 12 0 3
48
49
50
0 0.75 0.25
0 0.5 0.25
0 0.25 0.25
1 13 0 2
51
52
1 1 0.08333333333333333
1 1 0.1666666666666667
1 14 0 3
53
54
55
1 0.25 0.25
1 0.5 0.25
1 0.75 0.25
1 15 0 3
56
57
58
0.75 1 0.25
0.5 1 0.25
0.25 1 0.25
2 10 0 3
59
60
61
0.5001631306141386 0.4983000797112823 0
0.4125714525046018 0.5880499820944227 0
0.5897672702303844 0.4085570954625045 0
2 11 0 12
62
63
64
65
66
67
68
69
70
71
72
73
0.1171571810401651 0.7009919838607906 0
0.1967057837490773 0.8036418585859795 0
0.7009919838607908 0.882842818959835 0
0.8036418585859795 0.8032942162509227 0
0.7009919838607908 0.1171571810401652 0
0.8036418585859795 0.1967057837490774 0
0.8798386950146759 0.3022959766483164 0
0.8798386950146759 0.6977040233516836 0
0.2990080161392091 0.1171571810401652 0
0.1963581414140204 0.1967057837490773 0
0.3022959766483163 0.8798386950146759 0
0.1201613049853241 0.3022959766483163 0
2 12 0 14
74
75
76
77
78
79
80
81
82
83
84
85
86
87
0.7121320343559641 0.7121320343559644 0.08333333333333333
0.7121320343559641 0.7121320343559644 0.1666666666666667
0.4999999999999997 0.8 0.08333333333333333
0.4999999999999997 0.8 0.1666666666666667
0.2878679656440353 0.7121320343559638 0.08333333333333333
0.2878679656440353 0.7121320343559638 0.1666666666666667
0.2 0.4999999999999994 0.08333333333333333
0.2 0.4999999999999994 0.1666666666666667
0.2878679656440357 0.2878679656440358 0.08333333333333333
0.2878679656440357 0.2878679656440358 0.1666666666666667
0.4999999999999997 0.2 0.08333333333333333
0.4999999999999997 0.2 0.1666666666666667
0.7121320343559641 0.2878679656440355 0.08333333333333333
0.7121320343559641 0.2878679656440355 0.1666666666666667
2 13 0 3
88
89
90
0.5001631306141386 0.4983000797112823 0.25
0.4125714525046018 0.5880499820944227 0.25
0.5897672702303844 0.4085570954625045 0.25
2 14 0 6
91
92
93
94
95
96
0.25 0 0.08333333333333333
0.25 0 0.1666666666666667
0.5 0 0.08333333333333333
0.5 0 0.1666666666666667
0.75 0 0.08333333333333333
0.75 0 0.1666666666666667
2 15 0 6
97
98
99
100
101
102
0 0.75 0.08333333333333333
0 0.75 0.1666666666666667
0 0.5 0.08333333333333333
0 0.5 0.1666666666666667
0 0.25 0.08333333333333333
0 0.25 0.1666666666666667
2 16 0 6
103
104
105
106
107
108
1 0.25 0.08333333333333333
1 0.25 0.1666666666666667
1 0.5 0.08333333333333333
1 0.5 0.1666666666666667
1 0.75 0.08333333333333333
1 0.75 0.1666666666666667
2 17 0 6
109
110
111
112
113
114
0.75 1 0.08333333333333333
0.75 1 0.1666666666666667
0.5 1 0.08333333333333333
0.5 1 0.1666666666666667
0.25 1 0.08333333333333333
0.25 1 0.1666666666666667
2 18 0 12
115
116
117
118
119
120
121
122
123
124
125
126
0.1171571810401651 0.7009919838607906 0.25
0.1967057837490773 0.8036418585859795 0.25
0.7009919838607908 0.882842818959835 0.25
0.8036418585859795 0.8032942162509227 0.25
0.7009919838607908 0.1171571810401652 0.25
0.8036418585859795 0.1967057837490774 0.25
0.8798386950146759 0.3022959766483164 0.25
0.8798386950146759 0.6977040233516836 0.25
0.2990080161392091 0.1171571810401652 0.25
0.1963581414140204 0.1967057837490773 0.25
0.3022959766483163 0.8798386950146759 0.25
0.1201613049853241 0.3022959766483163 0.25
3 1 0 6
127
128
129
130
131
132
0.5001631306141386 0.4983000797112823 0.08333333333333333
0.5001631306141386 0.4983000797112823 0.1666666666666667
0.4125714525046018 0.5880499820944227 0.08333333333333333
0.4125714525046018 0.5880499820944227 0.1666666666666667
0.5897672702303844 0.4085570954625045 0.08333333333333333
0.5897672702303844 0.4085570954625045 0.1666666666666667
3 2 0 24
133
134
135
136
137
138
139
140
141
142
143
144
145
146
147
148
149
150
151
152
153
154
155
156
0.1171571810401651 0.7009919838607906 0.08333333333333333
0.1171571810401651 0.7009919838607906 0.1666666666666667
0.1967057837490773 0.8036418585859795 0.08333333333333333
0.1967057837490773 0.8036418585859795 0.1666666666666667
0.7009919838607908 0.882842818959835 0.08333333333333333
0.7009919838607908 0.882842818959835 0.1666666666666667
0.8036418585859795 0.8032942162509227 0.08333333333333333
0.8036418585859795 0.8032942162509227 0.1666666666666667
0.7009919838607908 0.1171571810401652 0.08333333333333333
0.7009919838607908 0.1171571810401652 0.1666666666666667
0.8036418585859795 0.1967057837490774 0.08333333333333333
0.8036418585859795 0.1967057837490774 0.1666666666666667
0.8798386950146759 0.3022959766483164 0.08333333333333333
0.8798386950146759 0.3022959766483164 0.1666666666666667
0.8798386950146759 0.6977040233516836 0.08333333333333333
0.8798386950146759 0.6977040233516836 0.1666666666666667
0.2990080161392091 0.1171571810401652 0.08333333333333333
0.2990080161392091 0.1171571810401652 0.1666666666666667
0.1963581414140204 0.1967057837490773 0.08333333333333333
0.1963581414140204 0.1967057837490773 0.1666666666666667
0.3022959766483163 0.8798386950146759 0.08333333333333333
0.3022959766483163 0.8798386950146759 0.1666666666666667
0.1201613049853241 0.3022959766483163 0.08333333333333333
0.1201613049853241 0.3022959766483163 0.1666666666666667
$EndNodes
$Elements
6 150 1 150
2 10 3 6
1 28 61 59 27 
2 24 60 59 23 
3 60 26 27 59 
4 61 5 23 59 
5 26 60 24 25 
6 5 61 28 29 
2 11 3 24
7 26 73 71 27 
8 28 27 71 70 
9 24 72 63 25 
10 5 29 67 68 
11 5 69 65 23 
12 28 66 67 29 
13 24 23 65 64 
14 26 25 63 62 
15 13 66 28 12 
16 20 21 24 64 
17 22 72 24 21 
18 14 15 26 62 
19 17 18 5 68 
20 11 12 28 70 
21 19 69 5 18 
22 16 73 26 15 
23 3 63 72 22 
24 2 17 68 67 
25 1 11 70 71 
26 1 71 73 16 
27 2 67 66 13 
28 4 65 69 19 
29 4 20 64 65 
30 3 14 62 63 
2 13 3 6
31 37 90 88 36 
32 33 89 88 32 
33 89 35 36 88 
34 90 6 32 88 
35 35 89 33 34 
36 6 90 37 38 
2 18 3 24
37 35 126 124 36 
38 37 36 124 123 
39 33 125 116 34 
40 6 38 120 121 
41 6 122 118 32 
42 37 119 120 38 
43 33 32 118 117 
44 35 34 116 115 
45 45 119 37 44 
46 56 57 33 117 
47 58 125 33 57 
48 48 49 35 115 
49 53 54 6 121 
50 43 44 37 123 
51 55 122 6 54 
52 50 126 35 49 
53 9 116 125 58 
54 8 53 121 120 
55 7 43 123 124 
56 7 124 126 50 
57 8 120 119 45 
58 10 118 122 55 
59 10 56 117 118 
60 9 48 115 116 
3 1 5 18
61 59 27 28 61 127 82 84 131 
62 127 82 84 131 128 83 85 132 
63 128 83 85 132 88 36 37 90 
64 59 23 24 60 127 74 76 129 
65 127 74 76 129 128 75 77 130 
66 128 75 77 130 88 32 33 89 
67 27 59 60 26 82 127 129 80 
68 82 127 129 80 83 128 130 81 
69 83 128 130 81 36 88 89 35 
70 23 59 61 5 74 127 131 30 
71 74 127 131 30 75 128 132 31 
72 75 128 132 31 32 88 90 6 
73 24 25 26 60 76 78 80 129 
74 76 78 80 129 77 79 81 130 
75 77 79 81 130 33 34 35 89 
76 28 29 5 61 84 86 30 131 
77 84 86 30 131 85 87 31 132 
78 85 87 31 132 37 38 6 90 
3 2 5 72
79 71 27 26 73 151 82 80 155 
80 151 82 80 155 152 83 81 156 
81 152 83 81 156 124 36 35 126 
82 71 70 28 27 151 149 84 82 
83 151 149 84 82 152 150 85 83 
84 152 150 85 83 124 123 37 36 
85 63 25 24 72 135 78 76 153 
86 135 78 76 153 136 79 77 154 
87 136 79 77 154 116 34 33 125 
88 67 68 5 29 143 145 30 86 
89 143 145 30 86 144 146 31 87 
90 144 146 31 87 120 121 6 38 
91 65 23 5 69 139 74 30 147 
92 139 74 30 147 140 75 31 148 
93 140 75 31 148 118 32 6 122 
94 67 29 28 66 143 86 84 141 
95 143 86 84 141 144 87 85 142 
96 144 87 85 142 120 38 37 119 
97 65 64 24 23 139 137 76 74 
98 139 137 76 74 140 138 77 75 
99 140 138 77 75 118 117 33 32 
100 63 62 26 25 135 133 80 78 
101 135 133 80 78 136 134 81 79 
102 136 134 81 79 116 115 35 34 
103 28 12 13 66 84 93 95 141 
104 84 93 95 141 85 94 96 142 
105 85 94 96 142 37 44 45 119 
106 24 64 20 21 76 137 109 111 
107 76 137 109 111 77 138 110 112 
108 77 138 110 112 33 117 56 57 
109 24 21 22 72 76 111 113 153 
110 76 111 113 153 77 112 114 154 
111 77 112 114 154 33 57 58 125 
112 26 62 14 15 80 133 97 99 
113 80 133 97 99 81 134 98 100 
114 81 134 98 100 35 115 48 49 
115 5 68 17 18 30 145 103 105 
116 30 145 103 105 31 146 104 106 
117 31 146 104 106 6 121 53 54 
118 28 70 11 12 84 149 91 93 
119 84 149 91 93 85 150 92 94 
120 85 150 92 94 37 123 43 44 
121 5 18 19 69 30 105 107 147 
122 30 105 107 147 31 106 108 148 
123 31 106 108 148 6 54 55 122 
124 26 15 16 73 80 99 101 155 
125 80 99 101 155 81 100 102 156 
126 81 100 102 156 35 49 50 126 
127 72 22 3 63 153 113 46 135 
128 153 113 46 135 154 114 47 136 
129 154 114 47 136 125 58 9 116 
130 68 67 2 17 145 143 41 103 
131 145 143 41 103 146 144 42 104 
132 146 144 42 104 121 120 8 53 
133 70 71 1 11 149 151 39 91 
134 149 151 39 91 150 152 40 92 
135 150 152 40 92 123 124 7 43 
136 73 16 1 71 155 101 39 151 
137 155 101 39 151 156 102 40 152 
138 156 102 40 152 126 50 7 124 
139 66 13 2 67 141 95 41 143 
140 141 95 41 143 142 96 42 144 
141 142 96 42 144 119 45 8 120 
142 69 19 4 65 147 107 51 139 
143 147 107 51 139 148 108 52 140 
144 148 108 52 140 122 55 10 118 
145 64 65 4 20 137 139 51 109 
146 137 139 51 109 138 140 52 110 
147 138 140 52 110 117 118 10 56 
148 62 63 3 14 133 135 46 97 
149 133 135 46 97 134 136 47 98 
150 134 136 47 98 115 116 9 48 
$EndElements
